<?xml version="1.0" encoding="UTF-8"?>
<svg width="48px" height="7px" viewBox="0 0 48 7" version="1.1" xmlns="http://www.w3.org/2000/svg" xmlns:xlink="http://www.w3.org/1999/xlink">
    <!-- Generator: Sketch 48.2 (47327) - http://www.bohemiancoding.com/sketch -->
    <title>Line 5</title>
    <desc>Created with Sketch.</desc>
    <defs></defs>
    <g id="1920---блог-расширенный" stroke="none" stroke-width="1" fill="none" fill-rule="evenodd" transform="translate(-676.000000, -1830.000000)" stroke-linecap="square">
        <g id="Group-5" transform="translate(564.000000, 1757.000000)" fill="#1F1A17" stroke="#1F1A17">
            <path d="M159.5,76.5 L112.5,76.5" id="Line-5"></path>
            <path id="Line-5-decoration-1" d="M112.5,76.5 L123.3,79.5 L123.3,73.5 L112.5,76.5 Z"></path>
        </g>
    </g>
</svg>