<?xml version="1.0" encoding="UTF-8"?>
<svg width="53px" height="53px" viewBox="0 0 53 53" version="1.1" xmlns="http://www.w3.org/2000/svg" xmlns:xlink="http://www.w3.org/1999/xlink">
    <!-- Generator: Sketch 48.2 (47327) - http://www.bohemiancoding.com/sketch -->
    <title>Vector</title>
    <desc>Created with Sketch.</desc>
    <defs></defs>
    <g id="1920---Главная" stroke="none" stroke-width="1" fill="none" fill-rule="evenodd" transform="translate(-928.000000, -3232.000000)">
        <g id="uslugi_section" transform="translate(0.000000, 2802.000000)" fill="#FFFFFF" fill-rule="nonzero">
            <g id="Group-7" transform="translate(781.000000, 430.000000)">
                <g id="Vector" transform="translate(147.000000, 0.000000)">
                    <path d="M52.1835,45.7543 L47.535,45.7543 L47.535,7.2462 L52.1835,7.2462 C52.6346,7.2462 52.9999,6.88092 52.9999,6.43117 C52.9999,5.98055 52.6346,5.61577 52.1835,5.61577 L47.3769,5.61577 L47.3769,0.815152 C47.3769,0.3654 47.0109,0 46.5605,0 C46.1088,0 45.7441,0.365276 45.7441,0.815152 L45.7441,5.61527 L7.25729,5.61527 L7.25729,0.815152 C7.25729,0.365276 6.89165,0 6.44091,0 C5.98918,0 5.62442,0.365276 5.62442,0.815152 L5.62442,5.61527 L0.816373,5.61527 C0.365011,5.61527 -1.8339783e-09,5.98005 -1.8339783e-09,6.43067 C-1.8339783e-09,6.88042 0.365011,7.24582 0.816373,7.24582 L5.62442,7.24582 L5.62442,45.7543 L0.816373,45.7543 C0.365011,45.7543 -1.8339783e-09,46.1196 -1.8339783e-09,46.5693 C-1.8339783e-09,47.0203 0.365011,47.3845 0.816373,47.3845 L5.62442,47.3845 L5.62442,52.1848 C5.62442,52.6346 5.98918,53 6.44091,53 C6.89165,53 7.25741,52.6346 7.25741,52.1848 L7.25741,47.4573 L45.7442,47.4573 L45.7442,52.1848 C45.7442,52.6346 46.109,53 46.5606,53 C47.0111,53 47.3771,52.6346 47.3771,52.1848 L47.3771,47.3845 L52.1836,47.3845 C52.6347,47.3845 53,47.0203 53,46.5693 C52.9999,46.1196 52.6346,45.7543 52.1835,45.7543 Z M19.6846,45.7913 L7.25729,45.7913 L7.25729,33.2932 L19.6846,33.2932 L19.6846,45.7913 Z M19.6846,32.7496 L7.25729,32.7496 L7.25729,20.2876 L19.6846,20.2876 L19.6846,32.7496 Z M19.6846,19.7075 L7.25729,19.7075 L7.25729,7.2462 L19.6846,7.2462 L19.6846,19.7075 Z M32.7481,45.7913 L20.2289,45.7913 L20.2289,33.2932 L32.7481,33.2932 L32.7481,45.7913 Z M32.7481,32.7496 L20.2289,32.7496 L20.2289,20.2876 L32.7481,20.2876 L32.7481,32.7496 Z M32.7481,19.7075 L20.2289,19.7075 L20.2289,7.2462 L32.7481,7.2462 L32.7481,19.7075 Z M45.8112,45.7913 L33.2923,45.7913 L33.2923,33.2932 L45.8112,33.2932 L45.8112,45.7913 Z M45.8112,32.7496 L33.2923,32.7496 L33.2923,20.2876 L45.8112,20.2876 L45.8112,32.7496 Z M45.8112,19.7075 L33.2923,19.7075 L33.2923,7.2462 L45.8112,7.2462 L45.8112,19.7075 Z M44.8256,31.6305 L34.5488,31.6305 L34.5488,21.3698 L44.8256,21.3698 L44.8256,31.6305 Z" id="path0_fill"></path>
                </g>
            </g>
        </g>
    </g>
</svg>